{
    "cards":{
        "any":[
            "89",
            "Myrtle summonned",
            "Mutezipan",
            "quote 777",
            "Kolo distracted",
            "Kolo can english",
            "Rickroll",
            "Singing",
            "Jumpscare",
            "Not my birthday!",
            "Hamilton",
            "First Try",
            "potato",
            "Not like that, chat.",
            "ginger",
            "gin",
            "spatula",
            "wrong button",
            "get the goose",
            "level one for scrubs",
            "level two for scrubs",
            "shame bell",
            "shame in chat",
            "shane in chat",
            "meme speedrun",
            "dirty balerina",
            "overloaf story",
            "helloitsnephew story",
            "babu frick",
            "accordion music",
            "moozipan trolling",
            "mods trolling",
            "chat trolls mods"
        ],
        "card-2-2":["Kolo cries"]
    }
}